^C:\USERS\USER\ONEDRIVE - SHEFFIELD HALLAM UNIVERSITY\DESKTOP\UNI WORK\PROGRAMMING 2D GAMES\PROJECT 1\T011\T011\HANGMANSTARTER\MAIN.CPP
/c /I..\..\..\DIRECTXTK\INC /ZI /JMC /nologo /W3 /WX- /diagnostics:column /Od /Oy- /D WIN32 /D _DEBUG /D _WINDOWS /D _MBCS /Gm- /EHsc /RTC1 /MDd /GS- /fp:precise /Zc:wchar_t /Zc:forScope /Zc:inline /Fo"DEBUG\\" /Fd"DEBUG\VC142.PDB" /Gd /TP /analyze- /FC /wd4005  C:\USERS\USER\ONEDRIVE - SHEFFIELD HALLAM UNIVERSITY\DESKTOP\UNI WORK\PROGRAMMING 2D GAMES\PROJECT 1\T011\T011\HANGMANSTARTER\MAIN.CPP
^C:\USERS\USER\ONEDRIVE - SHEFFIELD HALLAM UNIVERSITY\DESKTOP\UNI WORK\PROGRAMMING 2D GAMES\PROJECT 1\T011\T011\HANGMANSTARTER\GAME.CPP
/c /I..\..\..\DIRECTXTK\INC /ZI /JMC /nologo /W3 /WX- /diagnostics:column /Od /Oy- /D WIN32 /D _DEBUG /D _WINDOWS /D _MBCS /Gm- /EHsc /RTC1 /MDd /GS- /fp:precise /Zc:wchar_t /Zc:forScope /Zc:inline /Fo"DEBUG\\" /Fd"DEBUG\VC142.PDB" /Gd /TP /analyze- /FC /wd4005  C:\USERS\USER\ONEDRIVE - SHEFFIELD HALLAM UNIVERSITY\DESKTOP\UNI WORK\PROGRAMMING 2D GAMES\PROJECT 1\T011\T011\HANGMANSTARTER\GAME.CPP
