^C:\USERS\USER\ONEDRIVE - SHEFFIELD HALLAM UNIVERSITY\DESKTOP\UNI WORK\PROGRAMMING 2D GAMES\PROJECT 1\T011\T011\HANGMANSTARTER\GAME.CPP|C:\USERS\USER\ONEDRIVE - SHEFFIELD HALLAM UNIVERSITY\DESKTOP\UNI WORK\PROGRAMMING 2D GAMES\PROJECT 1\T011\T011\HANGMANSTARTER\MAIN.CPP
C:\USERS\USER\ONEDRIVE - SHEFFIELD HALLAM UNIVERSITY\DESKTOP\UNI WORK\PROGRAMMING 2D GAMES\PROJECT 1\T011\T011\HANGMANSTARTER\DEBUG\VC142.PDB
C:\USERS\USER\ONEDRIVE - SHEFFIELD HALLAM UNIVERSITY\DESKTOP\UNI WORK\PROGRAMMING 2D GAMES\PROJECT 1\T011\T011\HANGMANSTARTER\DEBUG\VC142.IDB
C:\USERS\USER\ONEDRIVE - SHEFFIELD HALLAM UNIVERSITY\DESKTOP\UNI WORK\PROGRAMMING 2D GAMES\PROJECT 1\T011\T011\HANGMANSTARTER\DEBUG\MAIN.OBJ
C:\USERS\USER\ONEDRIVE - SHEFFIELD HALLAM UNIVERSITY\DESKTOP\UNI WORK\PROGRAMMING 2D GAMES\PROJECT 1\T011\T011\HANGMANSTARTER\DEBUG\GAME.OBJ
^C:\USERS\USER\ONEDRIVE - SHEFFIELD HALLAM UNIVERSITY\DESKTOP\UNI WORK\PROGRAMMING 2D GAMES\PROJECT 1\T011\T011\HANGMANSTARTER\MAIN.CPP
C:\USERS\USER\ONEDRIVE - SHEFFIELD HALLAM UNIVERSITY\DESKTOP\UNI WORK\PROGRAMMING 2D GAMES\PROJECT 1\T011\T011\HANGMANSTARTER\DEBUG\VC142.PDB
^C:\USERS\USER\ONEDRIVE - SHEFFIELD HALLAM UNIVERSITY\DESKTOP\UNI WORK\PROGRAMMING 2D GAMES\PROJECT 1\T011\T011\HANGMANSTARTER\GAME.CPP
C:\USERS\USER\ONEDRIVE - SHEFFIELD HALLAM UNIVERSITY\DESKTOP\UNI WORK\PROGRAMMING 2D GAMES\PROJECT 1\T011\T011\HANGMANSTARTER\DEBUG\VC142.PDB
C:\USERS\USER\ONEDRIVE - SHEFFIELD HALLAM UNIVERSITY\DESKTOP\UNI WORK\PROGRAMMING 2D GAMES\PROJECT 1\T011\T011\HANGMANSTARTER\DEBUG\VC142.IDB
C:\USERS\USER\ONEDRIVE - SHEFFIELD HALLAM UNIVERSITY\DESKTOP\UNI WORK\PROGRAMMING 2D GAMES\PROJECT 1\T011\T011\HANGMANSTARTER\DEBUG\GAME.OBJ
