^C:\USERS\USER\ONEDRIVE - SHEFFIELD HALLAM UNIVERSITY\DESKTOP\UNI WORK\PROGRAMMING 2D GAMES\PROJECT 1\T011\T011\HANGMANSTARTER\DEBUG\GAME.OBJ|C:\USERS\USER\ONEDRIVE - SHEFFIELD HALLAM UNIVERSITY\DESKTOP\UNI WORK\PROGRAMMING 2D GAMES\PROJECT 1\T011\T011\HANGMANSTARTER\DEBUG\MAIN.OBJ
C:\USERS\USER\ONEDRIVE - SHEFFIELD HALLAM UNIVERSITY\DESKTOP\UNI WORK\PROGRAMMING 2D GAMES\PROJECT 1\T011\T011\BIN\HANGMANSTARTER.EXE
C:\USERS\USER\ONEDRIVE - SHEFFIELD HALLAM UNIVERSITY\DESKTOP\UNI WORK\PROGRAMMING 2D GAMES\PROJECT 1\T011\T011\BIN\HANGMANSTARTER.ILK
C:\USERS\USER\ONEDRIVE - SHEFFIELD HALLAM UNIVERSITY\DESKTOP\UNI WORK\PROGRAMMING 2D GAMES\PROJECT 1\T011\T011\BIN\HANGMANSTARTER.PDB
